{"help": "https://odp.cantho.gov.vn/api/3/action/help_show?name=datastore_search", "success": true, "result": {"include_total": true, "limit": 5, "records_format": "objects", "resource_id": "cc95eeff-9bb9-4ab3-bcc3-f731dc1ee387", "total_estimation_threshold": null, "records": [{"_id":1,"Index":"1","User Id":"88F7B33d2bcf9f5","First Name":"Shelby","Last Name":"Terrell","Sex":"Male","Email":"elijah57@example.net","Phone":"001-084-906-7849x73518","Date of birth":"1945-10-26","Job Title":"Games developer"},{"_id":2,"Index":"2","User Id":"f90cD3E76f1A9b9","First Name":"Phillip","Last Name":"Summers","Sex":"Female","Email":"bethany14@example.com","Phone":"214.112.6044x4913","Date of birth":"1910-03-24","Job Title":"Phytotherapist"},{"_id":3,"Index":"3","User Id":"DbeAb8CcdfeFC2c","First Name":"Kristine","Last Name":"Travis","Sex":"Male","Email":"bthompson@example.com","Phone":"277.609.7938","Date of birth":"1992-07-02","Job Title":"Homeopath"},{"_id":4,"Index":"4","User Id":"A31Bee3c201ef58","First Name":"Yesenia","Last Name":"Martinez","Sex":"Male","Email":"kaitlinkaiser@example.com","Phone":"584.094.6111","Date of birth":"2017-08-03","Job Title":"Market researcher"},{"_id":5,"Index":"5","User Id":"1bA7A3dc874da3c","First Name":"Lori","Last Name":"Todd","Sex":"Male","Email":"buchananmanuel@example.net","Phone":"689-207-3558x7233","Date of birth":"1938-12-01","Job Title":"Veterinary surgeon"}], "fields": [{"id": "_id", "type": "int"}, {"id": "Index", "type": "text"}, {"id": "User Id", "type": "text"}, {"id": "First Name", "type": "text"}, {"id": "Last Name", "type": "text"}, {"id": "Sex", "type": "text"}, {"id": "Email", "type": "text"}, {"id": "Phone", "type": "text"}, {"id": "Date of birth", "type": "text"}, {"id": "Job Title", "type": "text"}], "_links": {"start": "/api/3/action/datastore_search?resource_id=cc95eeff-9bb9-4ab3-bcc3-f731dc1ee387&limit=5", "next": "/api/3/action/datastore_search?resource_id=cc95eeff-9bb9-4ab3-bcc3-f731dc1ee387&limit=5&offset=5"}, "total": 100, "total_was_estimated": false}}