{"help": "https://odp.cantho.gov.vn/api/3/action/help_show?name=datastore_search", "success": true, "result": {"include_total": true, "limit": 5, "records_format": "objects", "resource_id": "67cb4744-4384-44df-96aa-b64cd06dea75", "total_estimation_threshold": null, "records": [{"_id":1,"STT":"1","Ma hang hoa":"01.0001","Ten hang hoa, dich vu":"Thóc; gạo tẻ thường ","Dac diem kinh te, ky thuat, quy cach":" Khang dân hoặc tương đương ","Don vi tinh":"đ/kg","Loai gia pho bien":"Giá bán lẻ","Gia ky truoc":"13000","Gia ky nay":"13000","Muc tang (giam)":"0","Ty le tang (giam) (%)":"0","Nguon thong tin":"Do trực tiếp điều tra; thu thập","Ghi chu":null},{"_id":2,"STT":"2","Ma hang hoa":"01.0002","Ten hang hoa, dich vu":"Gạo tẻ ngon","Dac diem kinh te, ky thuat, quy cach":"Tám thơm hoặc tương đương ","Don vi tinh":"đ/kg","Loai gia pho bien":"Giá bán lẻ","Gia ky truoc":"20000","Gia ky nay":"30000","Muc tang (giam)":"10000","Ty le tang (giam) (%)":"50","Nguon thong tin":"Do trực tiếp điều tra; thu thập","Ghi chu":null},{"_id":3,"STT":"3","Ma hang hoa":"01.0003","Ten hang hoa, dich vu":"Thịt lợn hơi (Thịt heo hơi)","Dac diem kinh te, ky thuat, quy cach":"Thịt heo hơi bán theo kg ","Don vi tinh":"đ/kg","Loai gia pho bien":"Giá bán lẻ","Gia ky truoc":"51000","Gia ky nay":"60000","Muc tang (giam)":"9000","Ty le tang (giam) (%)":"17","Nguon thong tin":"Do trực tiếp điều tra; thu thập","Ghi chu":null},{"_id":4,"STT":"4","Ma hang hoa":"01.0004","Ten hang hoa, dich vu":"Thịt lợn nạc thăn (Thịt heo nạc thăn)","Dac diem kinh te, ky thuat, quy cach":"Thịt heo nạc thăn bán theo kg ","Don vi tinh":"đ/kg","Loai gia pho bien":"Giá bán lẻ","Gia ky truoc":"135000","Gia ky nay":"140000","Muc tang (giam)":"5000","Ty le tang (giam) (%)":"3","Nguon thong tin":"Do trực tiếp điều tra; thu thập","Ghi chu":null},{"_id":5,"STT":"5","Ma hang hoa":"01.0005","Ten hang hoa, dich vu":"Thịt bò thăn","Dac diem kinh te, ky thuat, quy cach":"Thịt bò thăn bán theo kg ","Don vi tinh":"đ/kg","Loai gia pho bien":"Giá bán lẻ","Gia ky truoc":"280000","Gia ky nay":"280000","Muc tang (giam)":"0","Ty le tang (giam) (%)":"0","Nguon thong tin":"Do trực tiếp điều tra; thu thập","Ghi chu":"Loại 1 hoặc phổ biến"}], "fields": [{"id": "_id", "type": "int"}, {"id": "STT", "type": "text"}, {"id": "Ma hang hoa", "type": "text"}, {"id": "Ten hang hoa, dich vu", "type": "text"}, {"id": "Dac diem kinh te, ky thuat, quy cach", "type": "text"}, {"id": "Don vi tinh", "type": "text"}, {"id": "Loai gia pho bien", "type": "text"}, {"id": "Gia ky truoc", "type": "text"}, {"id": "Gia ky nay", "type": "text"}, {"id": "Muc tang (giam)", "type": "text"}, {"id": "Ty le tang (giam) (%)", "type": "text"}, {"id": "Nguon thong tin", "type": "text"}, {"id": "Ghi chu", "type": "text"}], "_links": {"start": "/api/3/action/datastore_search?resource_id=67cb4744-4384-44df-96aa-b64cd06dea75&limit=5", "next": "/api/3/action/datastore_search?resource_id=67cb4744-4384-44df-96aa-b64cd06dea75&limit=5&offset=5"}, "total": 194, "total_was_estimated": false}}