{"help": "https://odp.cantho.gov.vn/api/3/action/help_show?name=datastore_search", "success": true, "result": {"include_total": true, "limit": 5, "records_format": "objects", "resource_id": "ff5951e4-ffd1-42bf-84bc-67cb315d5917", "total_estimation_threshold": null, "records": [{"_id":1,"STT":null,"Linh vuc (*)":null,"Loai hinh  (*)":null,"Hinh thuc  (*)":null,"Phan loai  (*)":null,"Ma Le hoi  (*)":null,"Ten le hoi  (*)":null,"Ten goi khac":null,"Quy mo/Hang/Cap  (*)":null,"Don vi Quan ly  (*)":null,"Quyet dinh cong nhan":null,"Thoi gian cong nhan":null,"Don vi to chuc":null,"Thoi gian to chuc":null,"Thanh phan":null,"Thong tin lien he":null,"Ngon ngu":null,"Dan toc":null,"Phan le":null,"Phan hoi":null,"Co tuc":null,"Chuc van":null,"Dien van":null,"Mo ta ngan gon":null,"Mo ta chi tiet":null,"Ghi chu":null,"Tinh/Thanh pho  (*)":null,"Quan/Huyen":null,"Phuong/Xa":null,"Thon/To":null,"So nha":null,"Ten duong":null},{"_id":2,"STT":null,"Linh vuc (*)":null,"Loai hinh  (*)":null,"Hinh thuc  (*)":null,"Phan loai  (*)":null,"Ma Le hoi  (*)":null,"Ten le hoi  (*)":null,"Ten goi khac":null,"Quy mo/Hang/Cap  (*)":null,"Don vi Quan ly  (*)":null,"Quyet dinh cong nhan":null,"Thoi gian cong nhan":null,"Don vi to chuc":null,"Thoi gian to chuc":null,"Thanh phan":null,"Thong tin lien he":null,"Ngon ngu":null,"Dan toc":null,"Phan le":null,"Phan hoi":null,"Co tuc":null,"Chuc van":null,"Dien van":null,"Mo ta ngan gon":null,"Mo ta chi tiet":null,"Ghi chu":null,"Tinh/Thanh pho  (*)":null,"Quan/Huyen":null,"Phuong/Xa":null,"Thon/To":null,"So nha":null,"Ten duong":null},{"_id":3,"STT":null,"Linh vuc (*)":null,"Loai hinh  (*)":null,"Hinh thuc  (*)":null,"Phan loai  (*)":null,"Ma Le hoi  (*)":null,"Ten le hoi  (*)":null,"Ten goi khac":null,"Quy mo/Hang/Cap  (*)":null,"Don vi Quan ly  (*)":null,"Quyet dinh cong nhan":null,"Thoi gian cong nhan":null,"Don vi to chuc":null,"Thoi gian to chuc":null,"Thanh phan":null,"Thong tin lien he":null,"Ngon ngu":null,"Dan toc":null,"Phan le":null,"Phan hoi":null,"Co tuc":null,"Chuc van":null,"Dien van":null,"Mo ta ngan gon":null,"Mo ta chi tiet":null,"Ghi chu":null,"Tinh/Thanh pho  (*)":null,"Quan/Huyen":null,"Phuong/Xa":null,"Thon/To":null,"So nha":null,"Ten duong":null},{"_id":4,"STT":null,"Linh vuc (*)":null,"Loai hinh  (*)":null,"Hinh thuc  (*)":null,"Phan loai  (*)":null,"Ma Le hoi  (*)":null,"Ten le hoi  (*)":null,"Ten goi khac":null,"Quy mo/Hang/Cap  (*)":null,"Don vi Quan ly  (*)":null,"Quyet dinh cong nhan":null,"Thoi gian cong nhan":null,"Don vi to chuc":null,"Thoi gian to chuc":null,"Thanh phan":null,"Thong tin lien he":null,"Ngon ngu":null,"Dan toc":null,"Phan le":null,"Phan hoi":null,"Co tuc":null,"Chuc van":null,"Dien van":null,"Mo ta ngan gon":null,"Mo ta chi tiet":null,"Ghi chu":null,"Tinh/Thanh pho  (*)":null,"Quan/Huyen":null,"Phuong/Xa":null,"Thon/To":null,"So nha":null,"Ten duong":null},{"_id":5,"STT":null,"Linh vuc (*)":null,"Loai hinh  (*)":null,"Hinh thuc  (*)":null,"Phan loai  (*)":null,"Ma Le hoi  (*)":null,"Ten le hoi  (*)":null,"Ten goi khac":null,"Quy mo/Hang/Cap  (*)":null,"Don vi Quan ly  (*)":null,"Quyet dinh cong nhan":null,"Thoi gian cong nhan":null,"Don vi to chuc":null,"Thoi gian to chuc":null,"Thanh phan":null,"Thong tin lien he":null,"Ngon ngu":null,"Dan toc":null,"Phan le":null,"Phan hoi":null,"Co tuc":null,"Chuc van":null,"Dien van":null,"Mo ta ngan gon":null,"Mo ta chi tiet":null,"Ghi chu":null,"Tinh/Thanh pho  (*)":null,"Quan/Huyen":null,"Phuong/Xa":null,"Thon/To":null,"So nha":null,"Ten duong":null}], "fields": [{"id": "_id", "type": "int"}, {"id": "STT", "type": "text"}, {"id": "Linh vuc (*)", "type": "text"}, {"id": "Loai hinh  (*)", "type": "text"}, {"id": "Hinh thuc  (*)", "type": "text"}, {"id": "Phan loai  (*)", "type": "text"}, {"id": "Ma Le hoi  (*)", "type": "text"}, {"id": "Ten le hoi  (*)", "type": "text"}, {"id": "Ten goi khac", "type": "text"}, {"id": "Quy mo/Hang/Cap  (*)", "type": "text"}, {"id": "Don vi Quan ly  (*)", "type": "text"}, {"id": "Quyet dinh cong nhan", "type": "text"}, {"id": "Thoi gian cong nhan", "type": "text"}, {"id": "Don vi to chuc", "type": "text"}, {"id": "Thoi gian to chuc", "type": "text"}, {"id": "Thanh phan", "type": "text"}, {"id": "Thong tin lien he", "type": "text"}, {"id": "Ngon ngu", "type": "text"}, {"id": "Dan toc", "type": "text"}, {"id": "Phan le", "type": "text"}, {"id": "Phan hoi", "type": "text"}, {"id": "Co tuc", "type": "text"}, {"id": "Chuc van", "type": "text"}, {"id": "Dien van", "type": "text"}, {"id": "Mo ta ngan gon", "type": "text"}, {"id": "Mo ta chi tiet", "type": "text"}, {"id": "Ghi chu", "type": "text"}, {"id": "Tinh/Thanh pho  (*)", "type": "text"}, {"id": "Quan/Huyen", "type": "text"}, {"id": "Phuong/Xa", "type": "text"}, {"id": "Thon/To", "type": "text"}, {"id": "So nha", "type": "text"}, {"id": "Ten duong", "type": "text"}], "_links": {"start": "/api/3/action/datastore_search?resource_id=ff5951e4-ffd1-42bf-84bc-67cb315d5917&limit=5", "next": "/api/3/action/datastore_search?resource_id=ff5951e4-ffd1-42bf-84bc-67cb315d5917&limit=5&offset=5"}, "total": 93, "total_was_estimated": false}}