{"help": "https://odp.cantho.gov.vn/api/3/action/help_show?name=datastore_search", "success": true, "result": {"include_total": true, "limit": 5, "records_format": "objects", "resource_id": "47d27973-c15a-4bd2-abe5-d0dc47a5d70b", "total_estimation_threshold": null, "records": [{"_id":1,"STT":"1","Ten nha may nuoc":" Dũng Tiến II","Vi tri":"Thôn Đan Điền xã Dũng Tiến, huyện Vĩnh Bảo","Nam xay dung":"2010","Dien tich \n(m2)":"7660","Cong suat \n(m3/ngay dem)":"4000","Vung phuc vu":"- 100% xã Giang Biên, \n- 100% Dũng Tiến,\n- Thôn 3,4,5,6,7,8 xã Trung Lập,\n- Thôn 4,5,6,7,8,9,10 xã Việt Tiến","So ho cung cap nuoc sach":"5629","Trinh trang hoat dong":"Đang hoạt động"},{"_id":2,"STT":"2","Ten nha may nuoc":" Vĩnh Long II","Vi tri":"Thôn Lô Đông, Xã Vĩnh Long, huyện Vĩnh Bảo","Nam xay dung":"2015","Dien tich \n(m2)":"3800","Cong suat \n(m3/ngay dem)":"5000","Vung phuc vu":"- 100% xã Vĩnh Long; \n- 100% xã Hiệp Hòa; \n- 100% xã Hùng Tiến; \n- 06/9 thôn xã An Hòa (An Lãng, Kênh Hữu, Tạ Ngoại 1, Tạ Ngoại 2, Nội Tạ; \n- 04/10 thôn xã Thắng Thủy (Hà Phương 1,2,3,4)","So ho cung cap nuoc sach":"6685","Trinh trang hoat dong":"Đang hoạt động"},{"_id":3,"STT":"3","Ten nha may nuoc":" Liên Am","Vi tri":"Thôn Hậu Đông, xã Liên Am, huyện Vĩnh Bảo","Nam xay dung":"2008","Dien tich \n(m2)":"3633,8","Cong suat \n(m3/ngay dem)":"3000","Vung phuc vu":"- 100% Hòa Bình;\n- 65% Lý Học; \n- 60% Liên Am;\n- 11% xã Trấn Dương; \n- 10% xã Tam Cường.","So ho cung cap nuoc sach":"4455","Trinh trang hoat dong":"Đang hoạt động"},{"_id":4,"STT":"4","Ten nha may nuoc":" Cao Minh","Vi tri":"Thôn Vạn Hoạch, xã Cao Minh, huyện Vĩnh Bảo","Nam xay dung":"2010","Dien tich \n(m2)":"3000","Cong suat \n(m3/ngay dem)":"3000","Vung phuc vu":"- 100% Cao Minh; \n- 35% Lý Học (2 thôn); \n- 40% Liên Am (3 thôn); \n- 80% Vĩnh Tiến (4/5 thôn); \n- 90% xã Tam Cường (10/11 thôn); \n- 100% xã Cổ Am.","So ho cung cap nuoc sach":"7428","Trinh trang hoat dong":"Đang hoạt động"},{"_id":5,"STT":"5","Ten nha may nuoc":" Tiền Phong 2","Vi tri":"Thôn Linh Đông 3, xã Tiền Phong, huyện Vĩnh Bảo","Nam xay dung":"2015","Dien tich \n(m2)":"14000","Cong suat \n(m3/ngay dem)":"6000","Vung phuc vu":"- 100%  xã Tiền Phong;\n- 100% xã Vĩnh Phong; \n- 75% xã Đồng Minh (9/12 thôn: Hồng Thái, Song Hùng, Quyết Thắng, Đồng Tiến, Quyết Tiến, Cấp Lực, Hùng Chiến, Thái Hoà, Quân Thiềng); \n- 85% xã Hưng Nhân (6/7 thôn: Hoàng Kênh, Bến Vọng, An Biên, Kê Sơn 1, Kê Sơn 2, Kênh Trạch);\n- 5% xã Thanh Lương (thôn Thanh Khê); Thôn An Quý xã Cộng Hiền, Thị trấn An Bài huyện Quỳnh Phụ, Thái Bình.","So ho cung cap nuoc sach":"5629","Trinh trang hoat dong":"Đang hoạt động"}], "fields": [{"id": "_id", "type": "int"}, {"id": "STT", "type": "text"}, {"id": "Ten nha may nuoc", "type": "text"}, {"id": "Vi tri", "type": "text"}, {"id": "Nam xay dung", "type": "text"}, {"id": "Dien tich \n(m2)", "type": "text"}, {"id": "Cong suat \n(m3/ngay dem)", "type": "text"}, {"id": "Vung phuc vu", "type": "text"}, {"id": "So ho cung cap nuoc sach", "type": "text"}, {"id": "Trinh trang hoat dong", "type": "text"}], "_links": {"start": "/api/3/action/datastore_search?resource_id=47d27973-c15a-4bd2-abe5-d0dc47a5d70b&limit=5", "next": "/api/3/action/datastore_search?resource_id=47d27973-c15a-4bd2-abe5-d0dc47a5d70b&limit=5&offset=5"}, "total": 169, "total_was_estimated": false}}