{"help": "https://odp.cantho.gov.vn/api/3/action/help_show?name=datastore_search", "success": true, "result": {"include_total": true, "limit": 5, "records_format": "objects", "resource_id": "03ac655a-cebc-4cff-9936-38b6ad08c80e", "total_estimation_threshold": null, "records": [{"_id":1,"STT":"1","Cap hoc":"Mầm non","Khoi":"3-12 tháng","So luong":"22","Gioi tinh (nu)":"7"},{"_id":2,"STT":"2","Cap hoc":"Mầm non","Khoi":"13-24 tháng","So luong":"2,870","Gioi tinh (nu)":"1,327"},{"_id":3,"STT":"3","Cap hoc":"Mầm non","Khoi":"25-36 tháng","So luong":"16,679","Gioi tinh (nu)":"7,697"},{"_id":4,"STT":"4","Cap hoc":"Mầm non","Khoi":"3-4 tuổi","So luong":"29,657","Gioi tinh (nu)":"13,958"},{"_id":5,"STT":"5","Cap hoc":"Mầm non","Khoi":"4-5 tuổi","So luong":"32,966","Gioi tinh (nu)":"15,791"}], "fields": [{"id": "_id", "type": "int"}, {"id": "STT", "type": "text"}, {"id": "Cap hoc", "type": "text"}, {"id": "Khoi", "type": "text"}, {"id": "So luong", "type": "text"}, {"id": "Gioi tinh (nu)", "type": "text"}], "_links": {"start": "/api/3/action/datastore_search?resource_id=03ac655a-cebc-4cff-9936-38b6ad08c80e&limit=5", "next": "/api/3/action/datastore_search?resource_id=03ac655a-cebc-4cff-9936-38b6ad08c80e&limit=5&offset=5"}, "total": 22, "total_was_estimated": false}}